{"icons":[{"name":"apple"},
{"name":"arrow-down"},
{"name":"arrow-left"},
{"name":"arrow-right"},
{"name":"arrow-up"},
{"name":"beaker"},
{"name":"briefcase"},
{"name":"brush"},
{"name":"calendar"},
{"name":"chevron-down"},
{"name":"chevron-left"},
{"name":"chevron-right"},
{"name":"chevron-top"},
{"name":"clock"},
{"name":"close"},
{"name":"download"},
{"name":"expand"},
{"name":"gear"},
{"name":"gears"},
{"name":"global"},
{"name":"globe"},
{"name":"graph-bar"},
{"name":"grid"},
{"name":"heart"},
{"name":"house"},
{"name":"list-ul"},
{"name":"map-marker"},
{"name":"page"},
{"name":"pause"},
{"name":"play"},
{"name":"plus"},
{"name":"present"},
{"name":"profile"},
{"name":"search"},
{"name":"shrink"},
{"name":"slideshow"},
{"name":"star"},
{"name":"tools"},
{"name":"university"},
{"name":"volume-0"},
{"name":"volume-1"},
{"name":"volume-2"},
{"name":"volume"},
{"name":"website"}]}