<?xml version="1.0" encoding="iso-8859-1"?>
<!-- Generator: Adobe Illustrator 18.1.1, SVG Export Plug-In . SVG Version: 6.00 Build 0)  -->
<svg version="1.1" xmlns="http://www.w3.org/2000/svg" xmlns:xlink="http://www.w3.org/1999/xlink" x="0px" y="0px"
	 viewBox="0 0 256 256" style="enable-background:new 0 0 256 256;" xml:space="preserve">
<g id="chevron-down">
</g>
<g id="chevron-right">
</g>
<g id="chevron-left">
</g>
<g id="chevron-top">
</g>
<g id="slideshow">
</g>
<g id="university">
</g>
<g id="calendar">
</g>
<g id="grid">
</g>
<g id="arrow-left">
</g>
<g id="arrow-down">
</g>
<g id="move">
	<path style="fill:#111111;" d="M128,96c17.645,0,32,14.355,32,32s-14.355,32-32,32s-32-14.355-32-32S110.355,96,128,96 M128,80
		c-26.51,0-48,21.49-48,48s21.49,48,48,48s48-21.49,48-48S154.51,80,128,80L128,80z"/>
	<g>
		<polygon style="fill:#111111;" points="154.343,48.971 128,22.628 101.657,48.971 90.343,37.657 128,0 165.657,37.657 		"/>
	</g>
	<g>
		<polygon style="fill:#111111;" points="37.656,165.657 0,128 37.656,90.343 48.971,101.657 22.627,128 48.971,154.343 		"/>
	</g>
	<g>
		<polygon style="fill:#111111;" points="218.344,165.657 207.029,154.343 233.373,128 207.029,101.657 218.344,90.343 256,128 		
			"/>
	</g>
	<g>
		<polygon style="fill:#111111;" points="128,256 90.343,218.343 101.657,207.029 128,233.372 154.343,207.029 165.657,218.343 		
			"/>
	</g>
</g>
<g id="arrow-up">
</g>
<g id="arrow-right">
</g>
<g id="refresh">
</g>
<g id="box-right">
</g>
<g id="download">
</g>
<g id="list-ul">
</g>
<g id="graph-bar">
</g>
<g id="clock">
</g>
<g id="search">
</g>
<g id="play">
</g>
<g id="pause">
</g>
<g id="expand">
</g>
<g id="shrink">
</g>
<g id="_x5C_">
</g>
<g id="page">
</g>
<g id="pages">
</g>
<g id="sliders">
</g>
<g id="house_1_">
</g>
<g id="gear">
</g>
<g id="star">
</g>
<g id="plus">
</g>
<g id="volume-min">
</g>
<g id="volume-0">
</g>
<g id="volume-1">
</g>
<g id="tools">
</g>
<g id="websites">
</g>
<g id="hear">
</g>
<g id="present">
</g>
<g id="beaker">
</g>
<g id="gears">
</g>
<g id="brush">
</g>
<g id="apple">
</g>
<g id="briefcase">
</g>
<g id="close">
</g>
<g id="map-marker">
</g>
<g id="globe">
</g>
<g id="profile">
</g>
<g id="menu">
</g>
<g id="html">
</g>
<g id="notes">
</g>
</svg>
