<?xml version="1.0" encoding="iso-8859-1"?>
<!-- Generator: Adobe Illustrator 18.1.1, SVG Export Plug-In . SVG Version: 6.00 Build 0)  -->
<svg version="1.1" xmlns="http://www.w3.org/2000/svg" xmlns:xlink="http://www.w3.org/1999/xlink" x="0px" y="0px"
	 viewBox="0 0 256 256" style="enable-background:new 0 0 256 256;" xml:space="preserve">
<g id="chevron-down">
</g>
<g id="chevron-right">
</g>
<g id="chevron-left">
</g>
<g id="chevron-top">
</g>
<g id="slideshow">
</g>
<g id="university">
</g>
<g id="calendar">
</g>
<g id="grid">
</g>
<g id="arrow-left">
</g>
<g id="arrow-down">
</g>
<g id="move">
</g>
<g id="arrow-up">
	<polygon style="fill:#111111;" points="136,256 136,30.627 219.354,113.981 230.667,102.667 128,0 25.333,102.667 36.646,113.981 
		120,30.627 120,256 	"/>
</g>
<g id="arrow-right">
</g>
<g id="refresh">
</g>
<g id="box-right">
</g>
<g id="download">
</g>
<g id="list-ul">
</g>
<g id="graph-bar">
</g>
<g id="clock">
</g>
<g id="search">
</g>
<g id="play">
</g>
<g id="pause">
</g>
<g id="expand">
</g>
<g id="shrink">
</g>
<g id="_x5C_">
</g>
<g id="page">
</g>
<g id="pages">
</g>
<g id="sliders">
</g>
<g id="house_1_">
</g>
<g id="gear">
</g>
<g id="star">
</g>
<g id="plus">
</g>
<g id="volume-min">
</g>
<g id="volume-0">
</g>
<g id="volume-1">
</g>
<g id="tools">
</g>
<g id="websites">
</g>
<g id="hear">
</g>
<g id="present">
</g>
<g id="beaker">
</g>
<g id="gears">
</g>
<g id="brush">
</g>
<g id="apple">
</g>
<g id="briefcase">
</g>
<g id="close">
</g>
<g id="map-marker">
</g>
<g id="globe">
</g>
<g id="profile">
</g>
<g id="menu">
</g>
<g id="html">
</g>
<g id="notes">
</g>
</svg>
