<?xml version="1.0" encoding="iso-8859-1"?>
<!-- Generator: Adobe Illustrator 18.1.1, SVG Export Plug-In . SVG Version: 6.00 Build 0)  -->
<svg version="1.1" xmlns="http://www.w3.org/2000/svg" xmlns:xlink="http://www.w3.org/1999/xlink" x="0px" y="0px"
	 viewBox="0 0 256 256" style="enable-background:new 0 0 256 256;" xml:space="preserve">
<g id="chevron-down">
</g>
<g id="chevron-right">
</g>
<g id="chevron-left">
</g>
<g id="chevron-top">
</g>
<g id="slideshow">
	<path style="fill:#FF0000;" d="M176,48v160H80V48H176 M192,32H64v192h128V32L192,32z"/>
	<polygon style="fill:#111111;" points="0,32 0,48 32,48 32,208 0,208 0,224 48,224 48,32 	"/>
	<polygon style="fill:#111111;" points="256,208 224,208 224,48 256,48 256,32 208,32 208,224 256,224 	"/>
</g>
<g id="university">
</g>
<g id="calendar">
</g>
<g id="grid">
</g>
<g id="arrow-left">
</g>
<g id="arrow-down">
</g>
<g id="move">
</g>
<g id="arrow-up">
</g>
<g id="arrow-right">
</g>
<g id="refresh">
</g>
<g id="box-right">
</g>
<g id="download">
</g>
<g id="list-ul">
</g>
<g id="graph-bar">
</g>
<g id="clock">
</g>
<g id="search">
</g>
<g id="play">
</g>
<g id="pause">
</g>
<g id="expand">
</g>
<g id="shrink">
</g>
<g id="_x5C_">
</g>
<g id="page">
</g>
<g id="pages">
</g>
<g id="sliders">
</g>
<g id="house_1_">
</g>
<g id="gear">
</g>
<g id="star">
</g>
<g id="plus">
</g>
<g id="volume-min">
</g>
<g id="volume-0">
</g>
<g id="volume-1">
</g>
<g id="tools">
</g>
<g id="websites">
</g>
<g id="hear">
</g>
<g id="present">
</g>
<g id="beaker">
</g>
<g id="gears">
</g>
<g id="brush">
</g>
<g id="apple">
</g>
<g id="briefcase">
</g>
<g id="close">
</g>
<g id="map-marker">
</g>
<g id="globe">
</g>
<g id="profile">
</g>
<g id="menu">
</g>
<g id="html">
</g>
<g id="notes">
</g>
</svg>
